{
  "server": {
    "app": {
      "appName": "Buscando Huellas API"
    },
    "debug": {
      "$filter": "env",
      "$base": {
        "request": ["error"]
      },
      "$default": {
        "log": ["info", "error", "connection", "client"]
      },
      "production": {
        "log": ["error"]
      }
    }
  },
  "connections": {
    "$filter": "env",
    "production": [{
      "port": 80,
      "routes": {
        "cors": {
          "origin": ["https://buscandohuellas.now.sh", "https://www.buscandohuellas.com", "https://buscandohuellas.com"],
          "headers": ["accept", "authorization", "content-type", "If-None-Match", "Accept-Language"]
        }
      }
    }],
    "$default": [{
      "port": 4000,
      "routes": {
        "cors": {
          "origin": ["*"],
          "headers": ["accept", "authorization", "content-type", "If-None-Match", "Accept-Language"]
        }
      }
    }]
  },
  "registrations": [{
      "plugin": {
        "register": "./plugins/database",
        "options": {
          "dbName": {
            "$filter": "env",
            "production": "buscandohuellas",
            "dev": "buscandohuellas_test",
            "$default": "buscandohuellas_test"
          },
          "host": "sl-us-south-1-portal.0.dblayer.com",
          "port": 17454,
          "authKey": "740c0ce419dd1f986257fd62ae8d2baf",
          "caCert": "cacert"
        }
      }
    },
    {
      "plugin": "./plugins/events"
    },
    {
      "plugin": "./plugins/notifications"
    },
    {
      "plugin": "./plugins/users"
    },
    {
      "plugin": "./plugins/auth"
    },
    {
      "plugin": "./plugins/searches"
    },
    {
      "plugin": "./plugins/vets"
    }
  ]
}